<svg width="28" height="28" viewBox="0 0 28 28" fill="none" xmlns="http://www.w3.org/2000/svg">
<path d="M14.0001 0.666992C6.64009 0.666992 0.666687 6.64 0.666687 14C0.666687 21.36 6.64009 27.333 14.0001 27.333C21.3601 27.333 27.3334 21.36 27.3334 14C27.3334 6.64 21.3601 0.666992 14.0001 0.666992ZM14.0001 4.66699C16.2134 4.66699 18.0001 6.45299 18.0001 8.66699C18.0001 10.88 16.2134 12.667 14.0001 12.667C11.7867 12.667 10.0001 10.88 10.0001 8.66699C10.0001 6.45299 11.7867 4.66699 14.0001 4.66699ZM14.0001 23.6C10.6667 23.6 7.72009 21.893 6.00009 19.307C6.04009 16.653 11.3334 15.2 14.0001 15.2C16.6534 15.2 21.9601 16.653 22.0001 19.307C20.2801 21.893 17.3334 23.6 14.0001 23.6Z" fill="#92B0FF"/>
</svg>
